<?xml version="1.0" encoding="utf-8"?>
<!-- Generator: Adobe Illustrator 22.1.0, SVG Export Plug-In . SVG Version: 6.00 Build 0)  -->
<svg version="1.1" id="Слой_1" xmlns="http://www.w3.org/2000/svg" xmlns:xlink="http://www.w3.org/1999/xlink" x="0px" y="0px"
	 viewBox="0 0 50 35" style="enable-background:new 0 0 50 35;" xml:space="preserve">
<style type="text/css">
	.st0{fill:#E5E5E5;}
	.st1{fill:#C6C6C6;}
	.st2{fill:#D4D2D3;}
	.st3{fill:#272727;}
	.st4{fill:#3D3D3D;}
	.st5{fill:#979797;}
</style>
<title>1</title>
<path class="st0" d="M49.7,23.2c-0.2-0.1-0.5,0.2-0.7,0.5c0,0,0-0.1,0-0.1c0-0.7,0.2-2.8,0.3-3.5c0.3-2.2,0.1-4.4-0.8-6.4
	c-1.4-3.2-4.3-5.5-7.8-6c-3.2-0.5-7.7,0-10.4,2.3c-2.2,1.9-3.6,4.7-3.6,7.7c0.1,1.2,0.4,4.8,0.4,4.8l0,0.4c-0.3-0.2-0.5-0.3-0.7-0.2
	c-0.6,0.5-0.7,1.4-0.4,2.1c-0.1,0.7-0.1,1.5,0,2.2c0.2,0.7,0.4,1.4,0.7,2.1c0,0.6,0.2,1.1,0.5,1.6c0.4,0.5,0.9,1.2,1.4,1.2
	c0.3,0,0.5-0.2,0.6-0.4c0,0.1,0.1,0.1,0.1,0.2c0.1,0.3,0.2,2.3,0.2,2.3c0,0.4,0.1,0.7,0.2,1.1h18.6c0.2-1.2,0.3-2.5,0.4-3.8
	c0.1-0.2,0.2-0.3,0.3-0.5c0.2-0.4,0.3-0.9,0.3-1.4c0.2-0.6,0.4-1.3,0.5-1.9c0.1-0.8,0.1-2.1,0.1-2.1C50.1,24.6,50,23.9,49.7,23.2z"
	/>
<g>
	<path class="st1" d="M39.5,29.8c0.1-0.3,0.3-0.6,0.5-0.9c0.1-0.5,0.1-1,0-1.4c-0.2-0.5-0.3-1-0.4-1.6c-0.1-0.7-0.3-1.3-0.6-1.9
		c0.1,0.6,0.1,1.1,0.1,1.7c-0.1,0.5,0.2,1.4,0.2,1.8c0,0.4,0,0.7-0.1,1.1c-0.1,0.3-0.2,0.7-0.3,1.1c-0.1,0.2-0.2,0.5-0.3,0.7l0.2,0
		C38.8,30.3,39.4,30,39.5,29.8z"/>
	<path class="st1" d="M42,27.9c0.1,0.8,0.6,2.2,0.7,2.5c0-0.3-0.1-1.3,0-1.5c0-0.4,0-0.7,0-1.1c-0.1-0.3-0.2-0.6-0.3-1
		c0-0.2-0.1-1.1-0.1-1.1L42,25.3c0,0,0,0.9,0,1.4C42,27,42,27.8,42,27.9z"/>
	<path class="st1" d="M43.5,31.5C43.5,31.5,43.4,31.6,43.5,31.5c-0.1-0.1-0.1-1.3-0.3-1.7c0,0-0.2,0.1-0.2,0.2
		c0.1,0.2,0.2,0.5,0.3,0.7c0,0.1,0.1,0.9,0.1,1c0,0-0.7-0.1-0.7-0.3c0-0.1,0-0.2,0-0.4c-0.1,0.4-0.3,0.8-0.7,1
		c-0.4,0.3-0.9,0.3-1.4,0.1c-0.3-0.2-0.5-0.4-0.7-0.6c-0.1-0.1-0.2-0.3-0.2-0.5c0,0.1-0.1,0.3-0.2,0.4c-0.4,0.1-0.8,0.2-1.2,0.2
		c-0.2,0-0.4,0.1-0.6,0.1c0.1,0.2-0.1-0.8,0-1.1c0.1-0.2,0.5-0.5,0.5-0.7c0-0.2-0.3-0.2-0.3-0.2c-0.1,0.2-0.4,1.1-0.4,1.3
		c0,0.3,0.1,0.6,0.2,0.9c0.2,0.4,0.6,0.5,1.1,0.6c0,0,0,0,0,0c0,0,0.8,0.6,1,0.7c0.5,0.2,1,0.4,1.6,0.5c0.2-0.1,0.2-0.1,0.2-0.1
		c0.5-0.3,0.9-0.7,1.2-1.1c0.2,0,0.3-0.1,0.5-0.2C43.4,32.2,43.5,31.9,43.5,31.5z"/>
</g>
<g>
	<path class="st2" d="M47.6,22.1l-5.1,1.4c-0.2,0.6-0.3,1.2-0.3,1.8c0.3,0.8,0.8,1.4,1.6,1.8c1.1,0.4,2.2,0.4,3.3,0
		c0.8-0.4,1.4-1.1,1.7-1.9c0-0.6,0-1.3-0.1-1.9L47.6,22.1z"/>
	<path class="st2" d="M48.4,13.7c-1.4-3.2-4.3-5.5-7.8-6c-2.2-0.4-5-0.2-7.4,0.7c0.3-0.1-4.3,3.8-4.4,4.1c0.1-0.1-0.1,12.6-0.1,12.6
		c0,0,0.5,0.4,0.5,0.4c0.2-0.7,0.5-1.3,0.9-1.9c0.3,1.8,1.7,3.3,3.6,3.7c3.5,0,4.9-1.2,5-1.7c0-0.7-0.1-1.5-0.2-2.2L33.1,22
		c0,0-2.4,0.8-2.6,0.9c0,0-0.1,0.1-0.1,0.1l0.3-1.2c0,0,0.8-0.9,1.1-1.4c0.2-0.6,0.3-1.3,0.2-2c0-0.6-0.7-1.3-0.7-1.9
		c0.1-0.6,0.2-3.1,1.9-3.8c1.9-0.8,4.6,0.3,6.3,0.6c1.2,0.1,2.5-0.1,3.6-0.7c0.8-0.3,3.1-0.1,3.9,0.9c0.7,1.1,1,2.5,0.8,3.8
		c-0.2,0.9-0.5,0.6-0.4,1.1c0.1,1.1,1.6,2.5,1.7,1.8C49.5,18,49.2,15.7,48.4,13.7z"/>
</g>
<path class="st3" d="M39.3,23.7c-0.1-0.2-0.3-0.5-0.4-0.6l0.2,0.3L39.3,23.7z M30.1,23.4L30.1,23.4L30.1,23.4L30.1,23.4z M38,22.5
	l0.2,0.3c0,0-0.3-0.2-0.6-0.3l0.2,0.3c0,0-0.6-0.3-1-0.4s-0.8-0.2-1.2-0.4c-0.6-0.2-1.1-0.4-1.7-0.5c-0.6-0.1-1.2,0-1.8,0.4
	c-0.5,0.2-0.9,0.5-1.3,0.8c-0.3,0.2-0.5,0.5-0.7,0.8l0.2-0.2l0,0l0.2-0.1l0.1-0.1l0.1-0.1c1.3-0.6,2.8-0.7,4.1-0.3L36,23
	c0.8,0.2,2.2,0.5,2.3,0.5c0.2,0,0.3,0.1,0.5,0.1c-0.1-0.2-0.3-0.4-0.4-0.5c0.3,0.2,0.5,0.4,0.7,0.6C38.8,23.3,38.4,22.9,38,22.5z"/>
<path class="st3" d="M42.5,23.7c0.1-0.2,0.2-0.4,0.3-0.6l-0.1,0.3L42.5,23.7z M48.8,23.4L48.8,23.4L48.8,23.4L48.8,23.4z M43.4,22.5
	l-0.1,0.3c0,0,0.2-0.2,0.4-0.3l-0.1,0.3c0,0,0.4-0.3,0.7-0.4s0.6-0.2,0.8-0.4c0.4-0.2,0.8-0.4,1.2-0.5c0.4-0.1,0.9,0,1.2,0.4
	c0.3,0.2,0.6,0.5,0.9,0.8c0.2,0.2,0.4,0.5,0.5,0.8l-0.2-0.2l0,0l-0.1-0.1l-0.1-0.1L48.4,23c-0.8-0.6-1.9-0.7-2.8-0.3L44.7,23
	c-0.5,0.2-1.5,0.5-1.5,0.5c-0.1,0-0.2,0.1-0.3,0.1c0.1-0.2,0.2-0.4,0.3-0.5c-0.2,0.2-0.4,0.4-0.5,0.6C42.8,23.3,43.1,22.9,43.4,22.5
	z"/>
<path class="st3" d="M30.3,9.8c-2.2,1.7-3.6,4.4-3.7,7.2c0,0.9,0.3,4.4,0.4,5.8c0,0,0,0.1,0.1,0.1l0.4,0.3c0.4,0.4,0.6,1,0.7,1.5
	c0.2,0.4,0.5,1.1,0.7,1.5c0.5,1.3,0.6-1.2,0.2-0.5c0.1-0.3,0.5-1.3-0.1-0.8c0.3-0.4,0.2-1.3,0.2-1.3c0.2-0.6,0.2-0.7,0-0.4
	c0-0.2,0.6-1.4,0.2-0.9c0.1-0.5,0.7-0.8,0.1-0.5c0.6-0.6,0.7-0.7,0.2-0.5c0.3-0.2,0.6-0.9,0.6-1.1c0,0.1-0.1,0.1-0.2,0.2
	c0.2-0.3,0.4-0.9,0.3-0.9c0.4-1.1-0.3-4.4-0.3-4.6c0-3.1,3.6-6.6,4-6.8C32.8,8.4,31.5,9,30.3,9.8z"/>
<path class="st2" d="M32.6,8.6c0,0,0.1,0,0.1,0C32.7,8.6,32.6,8.6,32.6,8.6z"/>
<path class="st2" d="M26.7,17.7c0,0.3,0,0.6,0.1,1C26.7,18.3,26.7,18,26.7,17.7C26.7,17.7,26.7,17.7,26.7,17.7z"/>
<path class="st3" d="M29.1,26.6c0.2-0.4,0.2-0.7,0.2-1.1C29,25.9,28.9,26.2,29.1,26.6z"/>
<path class="st3" d="M45.1,9.5c0.8,0.7,1.6,1.5,2.2,2.4c0.2,0.3,0.3,0.6,0.5,0.9c0.5,1,0.7,2,0.7,3.1c0,0.2-0.4,3.3,0.1,4.2
	c0.2,0.5,0.4,2.9,0.3,3.4c0,0.5,0,1,0,1.5c0.1,0,0.1,0,0.1-0.1c0-0.1,0-0.2,0-0.3c0-0.3,0-0.5,0-0.7c0-0.5,0.1-1.7,0.2-2.5
	c0-0.3,0.1-0.5,0.1-0.7v-0.1C50,13.1,46.1,10.1,45.1,9.5z"/>
<g>
	<path class="st4" d="M25.3,11c-0.5,0.8-1.4,1.4-2.4,1.5c0.7-0.6,1.2-1.3,1.5-2.2c-0.6,1.8,0.1-0.6,0.1-0.9c0,0.1,0,0.1,0,0
		c-1.3,3.3-5.1-0.5-6.7-1.5c-1.3-0.8-2.7-1.4-4-2.2C13.3,5.5,10.3,5.3,13,5c-1.6-0.2-4.6,1.2-6.2,1.8c-1.5,0.6-2.5,1.6-3.4,3
		c0.3-1,0.8-1.9,1.5-2.7c-1.4,1.1-2.4,2.5-2.9,4.2c0-1.1,0.3-2.2,0.9-3.1c-1.5,1.4-1.4,3.3-2.2,5.1c-0.3-0.9-0.2-0.9-0.3-2.4
		c-0.4,2.3-1.8,1.9,1.2,4.1c2.2,1.5,4.4-0.3,6.6,0.3c-0.1-0.1,0.6,0.1,0.9,0.3c-0.1-0.2,0.7,0.5,1.5,0.6c-0.1-0.2,4.5,0.1,4.8,0
		c0.3-0.1,2.1-0.2,2.1-0.2c1.2,0.1,3,0.4,4.2,0c0.5-0.2,1-0.4,1.3-0.7c1.6-1.4,1.6-1.7,0-2C24.1,12.9,25,12,25.3,11z"/>
	<path class="st4" d="M14.9,16.3C14.9,16.3,14.9,16.3,14.9,16.3z"/>
</g>
<path id="repeat" class="st5" d="M37,7h-5c-0.7-0.1-0.4-1,0-1h3c-0.5-0.7-1-1.4-1.6-2c-1.8-2.7-5.3-3.5-8.2-2
	c-1.7,0.9-2.8,2.6-3,4.5L21,6.3C21.3,4,22.6,2,24.6,0.9c3-1.6,6.8-1,9.1,1.5C34.5,3.2,35.3,4.1,36,5V3c0-0.6,1-0.7,1,0.2V7z"/>
</svg>
